%!PS-Adobe-3.0 EPSF-3.0
%%Creator: cairo 1.16.0 (https://cairographics.org)
%%CreationDate: Tue Aug 17 21:09:08 2021
%%Pages: 1
%%DocumentData: Clean7Bit
%%LanguageLevel: 2
%%BoundingBox: 0 0 130 161
%%EndComments
%%BeginProlog
50 dict begin
/q { gsave } bind def
/Q { grestore } bind def
/cm { 6 array astore concat } bind def
/w { setlinewidth } bind def
/J { setlinecap } bind def
/j { setlinejoin } bind def
/M { setmiterlimit } bind def
/d { setdash } bind def
/m { moveto } bind def
/l { lineto } bind def
/c { curveto } bind def
/h { closepath } bind def
/re { exch dup neg 3 1 roll 5 3 roll moveto 0 rlineto
      0 exch rlineto 0 rlineto closepath } bind def
/S { stroke } bind def
/f { fill } bind def
/f* { eofill } bind def
/n { newpath } bind def
/W { clip } bind def
/W* { eoclip } bind def
/BT { } bind def
/ET { } bind def
/BDC { mark 3 1 roll /BDC pdfmark } bind def
/EMC { mark /EMC pdfmark } bind def
/cairo_store_point { /cairo_point_y exch def /cairo_point_x exch def } def
/Tj { show currentpoint cairo_store_point } bind def
/TJ {
  {
    dup
    type /stringtype eq
    { show } { -0.001 mul 0 cairo_font_matrix dtransform rmoveto } ifelse
  } forall
  currentpoint cairo_store_point
} bind def
/cairo_selectfont { cairo_font_matrix aload pop pop pop 0 0 6 array astore
    cairo_font exch selectfont cairo_point_x cairo_point_y moveto } bind def
/Tf { pop /cairo_font exch def /cairo_font_matrix where
      { pop cairo_selectfont } if } bind def
/Td { matrix translate cairo_font_matrix matrix concatmatrix dup
      /cairo_font_matrix exch def dup 4 get exch 5 get cairo_store_point
      /cairo_font where { pop cairo_selectfont } if } bind def
/Tm { 2 copy 8 2 roll 6 array astore /cairo_font_matrix exch def
      cairo_store_point /cairo_font where { pop cairo_selectfont } if } bind def
/g { setgray } bind def
/rg { setrgbcolor } bind def
/d1 { setcachedevice } bind def
/cairo_data_source {
  CairoDataIndex CairoData length lt
    { CairoData CairoDataIndex get /CairoDataIndex CairoDataIndex 1 add def }
    { () } ifelse
} def
/cairo_flush_ascii85_file { cairo_ascii85_file status { cairo_ascii85_file flushfile } if } def
/cairo_image { image cairo_flush_ascii85_file } def
/cairo_imagemask { imagemask cairo_flush_ascii85_file } def
%%EndProlog
%%BeginSetup
%%EndSetup
%%Page: 1 1
%%BeginPageSetup
%%PageBoundingBox: 0 0 130 161
%%EndPageSetup
q 0 0 130 161 rectclip
1 0 0 -1 0 161 cm q
0.0509804 0.933333 0.662745 rg
40.457 9.977 m 40.457 9.977 39.516 4.172 42.203 1.078 c 42.203 1.078 31.992
 1.914 29.418 10.316 c 29.418 10.316 -3.996 20.016 0.398 54.766 c 3.754 
81.301 50.094 110.688 59.117 123.75 c 59.117 123.75 58.316 106.719 41.809
 86.738 c 25.301 66.754 27.141 56.484 28.07 50.711 c 28.789 46.277 30.387
 43.441 31.383 42.035 c 31.883 41.328 32.23 40.984 32.23 40.984 c 32.23 
40.984 35.66 43.238 37.914 42.445 c 40.164 41.656 43.762 40.004 47.305 42.707
 c 50.492 45.145 52.895 48.898 52.797 50.402 c 52.961 51.434 57.035 53.629
 57.035 53.629 c 57.035 53.629 61.152 53.969 62.844 52.777 c 64.535 51.582
 66.871 49.699 66.926 42.441 c 67.078 40.707 66.629 40.672 65.469 40.246
 c 64.309 39.82 59.875 35.438 54.016 26.367 c 48.16 17.297 46.527 13.348
 40.457 9.977 c h
40.457 9.977 m f
0.027451 0.0431373 0.945098 rg
85.203 93.227 m 85.145 92.762 l 85.078 92.293 l 85.031 91.992 84.984 91.688
 84.93 91.387 c 84.828 90.766 84.715 90.145 84.586 89.527 c 84.34 88.293
 84.066 87.062 83.766 85.84 c 83.172 83.383 82.473 80.945 81.75 78.539 c
 80.328 73.727 78.77 69.059 77.602 64.738 c 77.309 63.66 77.039 62.602 76.805
 61.574 c 76.57 60.582 76.363 59.586 76.191 58.582 c 75.852 56.656 75.684
 54.871 75.688 53.301 c 75.691 51.73 75.875 50.375 76.176 49.27 c 76.328
 48.719 76.496 48.215 76.691 47.773 c 76.785 47.551 76.895 47.348 76.98 
47.145 c 77.07 46.941 77.117 46.723 77.172 46.508 c 77.344 45.648 77.242
 44.625 77.148 43.773 c 77.113 43.551 77.094 43.359 77.059 43.168 c 77.023
 42.98 77.012 42.836 76.977 42.688 c 76.926 42.41 76.887 42.246 76.887 42.246
 c 76.656 41.973 l 76.656 41.973 76.508 41.914 76.25 41.844 c 76.109 41.801
 75.973 41.781 75.785 41.746 c 75.586 41.707 75.379 41.684 75.176 41.676
 c 74.676 41.66 74.176 41.734 73.699 41.891 c 73.426 41.965 73.164 42.09
 72.898 42.246 c 72.617 42.402 72.359 42.598 72.129 42.82 c 71.871 43.062
 71.645 43.336 71.449 43.633 c 71.25 43.945 71.07 44.293 70.891 44.656 c
 70.504 45.441 70.176 46.258 69.91 47.09 c 69.324 48.871 68.992 50.934 68.918
 53.102 c 68.844 55.27 69.043 57.543 69.418 59.836 c 69.613 60.984 69.848
 62.141 70.117 63.301 c 70.395 64.457 70.707 65.621 71.039 66.785 c 72.176
 70.691 73.621 74.613 75.078 78.492 c 67.145 62.715 54.09 63.465 51.664 
62.66 c 49.184 61.84 46.973 54.109 47.191 53.34 c 48.926 46.707 43.16 43.062
 43.16 43.062 c 43.16 43.062 43.516 44.527 42.578 47.02 c 41.645 49.508 
36.461 50.695 34.762 51.645 c 33.062 52.594 33.391 56.414 32.965 57.48 c
 32.539 58.551 30.059 61.117 30.059 61.117 c 31.117 61.43 32.012 64.512 
32.012 64.512 c 32.875 65.875 35.258 65.555 36.73 65.316 c 38.203 65.074
 38.789 67.203 42.852 72.426 c 46.914 77.648 44.789 84.863 46.812 86.41 
c 55.633 92.895 60.902 113.855 61.34 115.973 c 61.781 118.086 60.461 121.07
 61.668 122.086 c 62.871 123.105 64.617 121.059 64.617 121.059 c 65.73 113.926
 61.156 97.621 61.156 97.621 c 64.934 102.555 66.152 119.676 66.152 119.676
 c 66.152 119.676 66.387 120.176 68.828 119.539 c 72.371 118.637 70.723 
106.797 70.723 106.797 c 71.992 111.598 73.172 116.336 73.16 116.223 c 74.426
 116.527 76.734 115.156 78.531 113.84 c 79.156 113.441 79.82 112.93 80.484
 112.285 c 82.609 110.621 83.785 108.648 84.195 106.301 c 84.801 104.543
 85.223 102.59 85.398 100.523 c 85.598 98.18 85.516 95.715 85.203 93.227
 c h
85.203 93.227 m f
0.819608 0.556863 0.952941 rg
60.66 27.098 m 60.66 27.098 60.953 38.742 79.168 37.188 c 81.047 37.027
 82.77 48.984 81.344 59.801 c 80.938 64.395 85.504 70.051 87.129 82.078 
c 88.75 94.102 88.996 106.625 88.996 106.625 c 88.996 106.625 93.094 104.402
 94.043 101.531 c 94.996 98.656 94.867 82.219 93.039 74.793 c 93.039 74.793
 99.121 88.836 96.617 100.414 c 96.617 100.414 114.156 84.512 117.324 74.871
 c 119.59 68.695 117.586 61.535 113.988 56.758 c 110.391 51.98 98.809 44.191
 96.582 34.41 c 94.352 24.629 89.793 14.996 83.246 15.402 c 76.699 15.809
 72.84 20.176 72.422 23.805 c 72.422 23.805 61.605 27.066 60.66 27.098 c
 h
60.66 27.098 m f
0.933333 0.0588235 0.592157 rg
78.105 13 m 78.105 13 85.961 8.641 94.301 8.23 c 94.301 8.23 96.141 5.832
 99.742 5.973 c 103.344 6.113 106.031 9.875 106.078 15.703 c 106.184 17.789
 109.465 22.969 112.414 21.297 c 114.906 19.883 117.41 5.617 108.707 0 c
 108.707 0 120.402 3.867 120.324 20.547 c 120.324 20.547 125.863 12.973 
123.027 4.238 c 123.027 4.238 138.145 23.691 121.883 45.082 c 121.883 45.082
 131.59 52.715 121.746 72.348 c 121.746 72.348 120.914 55.57 115 49.344 
c 109.871 43.941 101.48 42.766 98.586 29.852 c 95.688 16.938 97.965 9.715
 78.105 13 c h
78.105 13 m f
0.027451 0.0431373 0.945098 rg
25.145 150.684 m 24.945 150.488 24.633 150.32 24.207 150.184 c 23.777 150.051
 23.32 149.941 22.832 149.855 c 22.352 149.762 21.883 149.699 21.426 149.668
 c 20.965 149.629 20.605 149.605 20.348 149.605 c 19.848 149.605 19.434 
149.746 19.113 150.027 c 18.801 150.309 18.523 150.66 18.285 151.074 c 18.043
 151.48 17.82 151.93 17.613 152.418 c 17.414 152.91 17.184 153.363 16.926
 153.777 c 16.676 154.184 16.379 154.527 16.035 154.809 c 15.691 155.09 
15.246 155.23 14.707 155.23 c 14.434 155.23 14.168 155.211 13.91 155.168
 c 13.66 155.117 13.438 155.035 13.238 154.918 c 13.043 154.805 12.887 154.645
 12.77 154.434 c 12.645 154.227 12.582 153.957 12.582 153.621 c 12.582 153.363
 12.688 152.84 12.895 152.059 c 13.105 151.27 13.379 150.332 13.723 149.246
 c 14.055 148.152 14.445 146.957 14.895 145.652 c 15.352 144.352 15.816 
143.039 16.285 141.715 c 16.762 140.395 17.238 139.113 17.707 137.871 c 
18.184 136.633 18.617 135.535 19.004 134.574 c 19.398 133.605 19.738 132.836
 20.02 132.262 c 20.301 131.691 20.492 131.402 20.598 131.402 c 20.867 131.402
 21.121 131.43 21.363 131.48 c 21.613 131.535 21.852 131.598 22.082 131.668
 c 22.32 131.742 22.555 131.805 22.785 131.855 c 23.023 131.91 23.285 131.934
 23.566 131.934 c 23.699 131.934 23.832 131.918 23.957 131.887 c 24.059 
131.867 24.148 131.84 24.223 131.809 c 24.305 131.77 24.348 131.715 24.348
 131.652 c 24.348 126.855 l 24.348 126.574 24.461 126.371 24.691 126.246
 c 24.918 126.113 25.164 126.043 25.426 126.043 c 26.758 126.043 27.805 
126.207 28.566 126.527 c 29.336 126.852 29.93 127.305 30.348 127.887 c 30.762
 128.461 31.07 129.164 31.27 129.996 c 31.465 130.82 31.664 131.73 31.863
 132.73 c 31.988 133.336 32.113 133.871 32.238 134.34 c 32.371 134.801 32.488
 135.246 32.582 135.684 c 32.684 136.113 32.762 136.559 32.816 137.027 c
 32.879 137.488 32.91 138.02 32.91 138.621 c 32.91 140.227 32.867 141.836
 32.785 143.449 c 32.699 145.055 32.605 146.664 32.504 148.277 c 32.41 149.883
 32.32 151.488 32.238 153.09 c 32.152 154.684 32.113 156.289 32.113 157.902
 c 32.113 158.246 32.051 158.574 31.926 158.887 c 31.801 159.207 31.629 
159.496 31.41 159.746 c 31.199 160.004 30.949 160.207 30.66 160.355 c 30.367
 160.512 30.055 160.59 29.723 160.59 c 28.824 160.59 28.09 160.418 27.52
 160.074 c 26.945 159.738 26.488 159.293 26.145 158.73 c 25.809 158.176 
25.57 157.547 25.426 156.84 c 25.277 156.133 25.18 155.414 25.129 154.684
 c 25.086 153.957 25.074 153.242 25.098 152.543 c 25.129 151.836 25.145 
151.215 25.145 150.684 c h
21.145 146.668 m 21.145 146.992 21.273 147.246 21.535 147.434 c 21.793 
147.613 22.098 147.742 22.441 147.824 c 22.793 147.91 23.148 147.961 23.504
 147.98 c 23.867 147.992 24.148 147.996 24.348 147.996 c 24.617 147.996 
24.773 147.887 24.816 147.668 c 24.867 147.441 24.895 147.195 24.895 146.934
 c 24.895 145.852 24.836 144.723 24.723 143.543 c 24.617 142.367 24.492 
141.176 24.348 139.965 c 24.098 139.699 l 23.91 139.824 23.707 140.066 23.488
 140.418 c 23.277 140.762 23.066 141.164 22.848 141.621 c 22.629 142.082
 22.414 142.57 22.207 143.09 c 22.008 143.602 21.832 144.09 21.676 144.559
 c 21.52 145.027 21.387 145.449 21.285 145.824 c 21.191 146.199 21.145 146.48
 21.145 146.668 c h
34.609 159.512 m 34.609 156.84 l 34.609 154.77 34.695 152.691 34.859 150.605
 c 35.016 148.523 35.18 146.445 35.344 144.371 c 35.5 142.301 35.625 140.227
 35.719 138.152 c 35.812 136.082 35.793 134.008 35.656 131.934 c 35.805 
131.676 35.953 131.477 36.109 131.34 c 36.266 131.195 36.473 131.121 36.734
 131.121 c 37.992 131.121 38.973 131.262 39.672 131.543 c 40.367 131.816
 41.082 132.336 41.812 133.105 c 42.539 133.867 43.164 134.742 43.688 135.73
 c 44.219 136.711 44.539 138.23 44.656 140.293 c 44.77 142.355 45.148 144.227
 45.797 145.902 c 46.441 147.57 47.023 147.652 47.547 146.152 c 48.617 142.02
 49.207 139.555 49.312 138.762 c 49.426 137.961 49.535 137.199 49.641 136.48
 c 49.754 135.762 49.852 135.137 49.938 134.605 c 50.031 134.074 50.098 
133.723 50.141 133.543 c 50.141 133.473 50.164 133.262 50.219 132.918 c 
50.281 132.566 50.352 132.168 50.438 131.73 c 50.531 131.293 50.617 130.867
 50.703 130.449 c 50.797 130.023 50.875 129.711 50.938 129.512 c 51.008 
129.242 51.082 128.914 51.156 128.527 c 51.238 128.133 51.344 127.754 51.469
 127.387 c 51.602 127.012 51.773 126.695 51.984 126.434 c 52.203 126.176
 52.477 126.043 52.812 126.043 c 53.406 126.043 53.922 126.184 54.359 126.465
 c 54.797 126.738 55.16 127.09 55.453 127.527 c 55.742 127.957 55.957 128.441
 56.094 128.98 c 56.227 129.523 56.297 130.059 56.297 130.59 c 56.297 131.027
 56.273 131.699 56.234 132.605 c 56.203 133.504 56.141 134.539 56.047 135.715
 c 55.961 136.883 55.852 138.145 55.719 139.496 c 55.582 140.852 55.406 
142.199 55.188 143.543 c 54.969 144.887 54.719 146.184 54.438 147.434 c 
54.156 148.684 53.828 149.789 53.453 150.746 c 53.086 151.695 52.676 152.461
 52.219 153.043 c 51.758 153.617 51.242 153.902 50.672 153.902 c 49.773 
153.902 48.945 153.711 48.188 153.324 c 47.438 152.941 46.754 152.461 46.141
 151.887 c 45.535 151.305 44.992 150.68 44.516 150.012 c 43.691 148.879 
42.977 147.586 42.375 146.137 c 42.094 146.137 l 42.031 146.367 41.977 146.754
 41.938 147.293 c 41.895 147.824 41.852 148.449 41.812 149.168 c 41.77 149.887
 41.719 150.668 41.656 151.512 c 41.594 152.355 41.504 153.207 41.391 154.059
 c 41.285 154.902 41.145 155.723 40.969 156.512 c 40.801 157.293 40.586 
157.984 40.328 158.59 c 40.066 159.191 39.75 159.676 39.375 160.043 c 39.008
 160.406 38.578 160.59 38.078 160.59 c 37.742 160.59 37.41 160.578 37.078
 160.559 c 36.742 160.547 36.426 160.512 36.125 160.449 c 35.836 160.387
 35.559 160.281 35.297 160.137 c 35.027 159.988 34.797 159.781 34.609 159.512
 c h
34.609 159.512 m f
56.73 152.965 m 56.73 150.168 l 56.73 148.98 56.754 147.773 56.793 146.543
 c 56.836 145.316 56.914 144.086 57.027 142.855 c 57.145 141.617 57.305 
140.379 57.512 139.137 c 57.723 137.898 57.996 136.684 58.34 135.496 c 58.871
 135.309 l 59.34 135.309 59.871 135.395 60.465 135.559 c 61.059 135.727 
61.629 135.945 62.184 136.215 c 62.734 136.488 63.223 136.789 63.652 137.121
 c 64.09 137.445 64.371 137.77 64.496 138.09 c 64.496 140.262 l 64.496 141.512
 64.402 142.695 64.215 143.809 c 64.027 144.926 63.777 146.027 63.465 147.121
 c 63.152 148.207 62.781 149.301 62.355 150.402 c 61.926 151.508 61.48 152.652
 61.012 153.84 c 60.875 154.152 60.684 154.371 60.434 154.496 c 60.191 154.621
 59.938 154.684 59.668 154.684 c 59.344 154.684 59.004 154.66 58.652 154.605
 c 58.301 154.543 57.98 154.445 57.699 154.309 c 57.418 154.164 57.191 153.988
 57.012 153.777 c 56.824 153.559 56.73 153.289 56.73 152.965 c h
63.262 134.84 m 59.926 134.945 58.539 133.637 59.09 130.918 c 59.129 130.48
 59.207 130.043 59.324 129.605 c 59.438 129.16 59.777 128.582 60.34 127.871
 c 60.91 127.164 61.816 126.945 63.059 127.215 c 64.297 127.488 65.098 127.988
 65.465 128.715 c 65.828 129.445 66.047 130.129 66.121 130.762 c 66.203 
131.387 66.09 132.066 65.777 132.793 c 65.465 133.523 65.074 134.105 64.605
 134.543 c 64.469 134.648 64.277 134.727 64.027 134.777 c 63.777 134.82 
63.52 134.84 63.262 134.84 c h
63.262 134.84 m f
86.137 146.137 m 85.855 145.855 l 85.594 145.855 85.344 146.023 85.105 
146.355 c 84.863 146.691 84.629 147.117 84.402 147.637 c 84.172 148.148 
83.941 148.715 83.715 149.34 c 83.496 149.965 83.27 150.566 83.043 151.137
 c 82.812 151.711 82.578 152.227 82.34 152.684 c 82.109 153.133 81.859 153.445
 81.59 153.621 c 80.512 153.621 l 79.906 153.621 79.293 153.543 78.668 153.387
 c 78.051 153.23 77.457 153.012 76.887 152.73 c 76.324 152.441 75.801 152.102
 75.324 151.715 c 74.844 151.32 74.434 150.883 74.09 150.402 c 74.027 150.34
 73.957 150.195 73.887 149.965 c 73.812 149.727 73.734 149.48 73.652 149.23
 c 73.566 148.98 73.473 148.762 73.371 148.574 c 73.266 148.379 73.145 148.277
 73.012 148.277 c 72.793 148.277 72.598 148.418 72.434 148.699 c 72.266 
148.973 72.105 149.316 71.949 149.73 c 71.793 150.148 71.621 150.602 71.434
 151.09 c 71.254 151.582 71.035 152.035 70.777 152.449 c 70.516 152.855 
70.199 153.199 69.824 153.48 c 69.449 153.762 68.996 153.902 68.465 153.902
 c 68.191 153.902 67.895 153.883 67.574 153.84 c 67.25 153.801 66.934 153.727
 66.621 153.621 c 66.301 153.52 65.992 153.383 65.699 153.215 c 65.41 153.051
 65.164 152.824 64.965 152.543 c 64.965 150.934 l 64.965 150.676 64.996 
150.238 65.059 149.621 c 65.121 149.008 65.207 148.293 65.309 147.48 c 65.402
 146.66 65.52 145.773 65.652 144.824 c 65.777 143.879 65.926 142.93 66.09
 141.98 c 66.246 141.023 66.414 140.102 66.59 139.215 c 66.77 138.32 66.941
 137.535 67.121 136.855 c 67.309 136.18 67.488 135.637 67.668 135.23 c 67.844
 134.816 68.016 134.605 68.184 134.605 c 68.629 134.605 69.156 134.676 69.762
 134.809 c 70.363 134.945 71 135.133 71.668 135.371 c 72.332 135.613 72.934
 135.918 73.465 136.293 c 74.004 136.668 74.52 138.039 75.012 140.402 c 
75.512 142.758 76.199 144.941 77.074 146.949 c 79.676 142.691 81.234 140.09
 81.746 139.152 c 82.254 138.207 82.715 137.285 83.121 136.387 c 83.535 
135.48 83.918 134.59 84.262 133.715 c 84.605 132.84 84.953 131.961 85.309
 131.074 c 85.66 130.18 86.035 129.273 86.434 128.355 c 86.828 127.43 87.266
 126.477 87.746 125.496 c 87.809 125.363 87.875 125.273 87.949 125.23 c 
88.02 125.191 88.098 125.168 88.184 125.168 c 88.254 125.168 88.344 125.184
 88.449 125.215 c 88.551 125.238 88.676 125.246 88.824 125.246 c 89.293 
125.246 89.824 125.324 90.418 125.48 c 91.012 125.637 91.605 125.848 92.199
 126.105 c 93.613 127.199 94.121 129.941 93.715 134.324 c 93.66 137.648 
93.625 139.449 93.605 139.73 c 93.594 140.004 93.578 140.324 93.559 140.699
 c 93.535 141.074 93.516 141.488 93.496 141.934 c 93.484 142.383 93.469 
142.824 93.449 143.262 c 93.426 143.691 93.406 144.086 93.387 144.449 c 
93.375 144.816 93.371 145.105 93.371 145.324 c 93.371 152.293 l 93.371 152.418
 93.355 152.691 93.324 153.105 c 93.301 153.523 93.27 153.965 93.23 154.434
 c 93.199 154.902 93.168 155.348 93.137 155.762 c 93.113 156.168 93.105 
156.441 93.105 156.574 c 93.105 156.762 93.066 156.996 92.996 157.277 c 
92.934 157.559 92.832 157.824 92.699 158.074 c 92.562 158.324 92.395 158.535
 92.199 158.715 c 92 158.891 91.766 158.98 91.496 158.98 c 90.473 158.98
 89.629 158.746 88.965 158.277 c 88.297 157.809 87.762 157.195 87.355 156.434
 c 86.957 155.664 86.672 154.805 86.496 153.855 c 86.316 152.91 86.203 151.961
 86.152 151.012 c 86.098 150.066 86.082 149.16 86.105 148.293 c 86.125 147.43
 86.137 146.711 86.137 146.137 c h
86.137 146.137 m f
106.754 150.684 m 106.555 150.488 106.242 150.32 105.816 150.184 c 105.387
 150.051 104.93 149.941 104.441 149.855 c 103.961 149.762 103.492 149.699
 103.035 149.668 c 102.574 149.629 102.215 149.605 101.957 149.605 c 101.457
 149.605 101.043 149.746 100.723 150.027 c 100.41 150.309 100.133 150.66
 99.895 151.074 c 99.652 151.48 99.43 151.93 99.223 152.418 c 99.023 152.91
 98.793 153.363 98.535 153.777 c 98.285 154.184 97.988 154.527 97.645 154.809
 c 97.301 155.09 96.855 155.23 96.316 155.23 c 96.043 155.23 95.777 155.211
 95.52 155.168 c 95.27 155.117 95.047 155.035 94.848 154.918 c 94.652 154.805
 94.496 154.645 94.379 154.434 c 94.254 154.227 94.191 153.957 94.191 153.621
 c 94.191 153.363 94.297 152.84 94.504 152.059 c 94.715 151.27 94.988 150.332
 95.332 149.246 c 95.664 148.152 96.055 146.957 96.504 145.652 c 96.961 
144.352 97.426 143.039 97.895 141.715 c 98.371 140.395 98.848 139.113 99.316
 137.871 c 99.793 136.633 100.227 135.535 100.613 134.574 c 101.008 133.605
 101.348 132.836 101.629 132.262 c 101.91 131.691 102.102 131.402 102.207
 131.402 c 102.477 131.402 102.73 131.43 102.973 131.48 c 103.223 131.535
 103.461 131.598 103.691 131.668 c 103.93 131.742 104.164 131.805 104.395
 131.855 c 104.633 131.91 104.895 131.934 105.176 131.934 c 105.309 131.934
 105.441 131.918 105.566 131.887 c 105.668 131.867 105.758 131.84 105.832
 131.809 c 105.914 131.77 105.957 131.715 105.957 131.652 c 105.957 126.855
 l 105.957 126.574 106.07 126.371 106.301 126.246 c 106.527 126.113 106.773
 126.043 107.035 126.043 c 108.367 126.043 109.414 126.207 110.176 126.527
 c 110.945 126.852 111.539 127.305 111.957 127.887 c 112.371 128.461 112.68
 129.164 112.879 129.996 c 113.074 130.82 113.273 131.73 113.473 132.73 
c 113.598 133.336 113.723 133.871 113.848 134.34 c 113.98 134.801 114.098
 135.246 114.191 135.684 c 114.293 136.113 114.371 136.559 114.426 137.027
 c 114.488 137.488 114.52 138.02 114.52 138.621 c 114.52 140.227 114.477
 141.836 114.395 143.449 c 114.309 145.055 114.215 146.664 114.113 148.277
 c 114.02 149.883 113.93 151.488 113.848 153.09 c 113.762 154.684 113.723
 156.289 113.723 157.902 c 113.723 158.246 113.66 158.574 113.535 158.887
 c 113.41 159.207 113.238 159.496 113.02 159.746 c 112.809 160.004 112.559
 160.207 112.27 160.355 c 111.977 160.512 111.664 160.59 111.332 160.59 
c 110.434 160.59 109.699 160.418 109.129 160.074 c 108.555 159.738 108.098
 159.293 107.754 158.73 c 107.418 158.176 107.18 157.547 107.035 156.84 
c 106.887 156.133 106.789 155.414 106.738 154.684 c 106.695 153.957 106.684
 153.242 106.707 152.543 c 106.738 151.836 106.754 151.215 106.754 150.684
 c h
102.754 146.668 m 102.754 146.992 102.883 147.246 103.145 147.434 c 103.402
 147.613 103.707 147.742 104.051 147.824 c 104.402 147.91 104.758 147.961
 105.113 147.98 c 105.477 147.992 105.758 147.996 105.957 147.996 c 106.227
 147.996 106.383 147.887 106.426 147.668 c 106.477 147.441 106.504 147.195
 106.504 146.934 c 106.504 145.852 106.445 144.723 106.332 143.543 c 106.227
 142.367 106.102 141.176 105.957 139.965 c 105.707 139.699 l 105.52 139.824
 105.316 140.066 105.098 140.418 c 104.887 140.762 104.676 141.164 104.457
 141.621 c 104.238 142.082 104.023 142.57 103.816 143.09 c 103.617 143.602
 103.441 144.09 103.285 144.559 c 103.129 145.027 102.996 145.449 102.895
 145.824 c 102.801 146.199 102.754 146.48 102.754 146.668 c h
102.754 146.668 m f
Q Q
showpage
%%Trailer
end
%%EOF
